<svg height="1024" width="640" xmlns="http://www.w3.org/2000/svg" fill="#212b44">
  <path d="M0 512v256h256V512H128c0 0 0-128 128-128V256C256 256 0 256 0 512zM640 384V256c0 0-256 0-256 256v256h256V512H512C512 512 512 384 640 384z" />
</svg>
