<svg xmlns="http://www.w3.org/2000/svg" width="75" height="75" viewBox="0 0 75 75">
    <defs>
        <filter id="u8dhbch6va">
            <feColorMatrix in="SourceGraphic" values="0 0 0 0 1.000000 0 0 0 0 1.000000 0 0 0 0 1.000000 0 0 0 1.000000 0"/>
        </filter>
    </defs>
    <g fill="none" fill-rule="evenodd">
        <g filter="url(#u8dhbch6va)" transform="translate(-217 -559)">
            <g fill="#000" fill-rule="nonzero">
                <path d="M60.425 27.181c.074-1.37.25-4.768.306-7.133.075-3.136-1.486-5.871-4.514-7.909-1.41-.939-2.958-1.656-4.592-2.127C38.322 6.72 9.06.09 8.766.024c-.264-.06-.541-.008-.764.143-.224.15-.373.387-.411.65-.038.26-.867 6.379 4.427 9.08.393.201 1.06.647 1.116 1.384l.003.039c.053.686-.358 1.325-1.01 1.572-1.931.7-3.701 1.771-5.207 3.152-2.937 2.72-4.604 5.829-6.152 11.468-1.199 4.366-.847 6.58.05 8.561.918 2.028 4.142 3.268 7.26 4.467 1.916.737 3.897 1.499 4.623 2.227 1.273 1.277 1.53 3.272 1.654 4.23.217 1.726 1.7 3.025 3.467 3.036h2.47c-.012.32-.02.639-.02.96 0 .527.434.954.969.954h2.58l1.438 1.41-1.3 1.964c-.14.212-.19.47-.136.719.053.248.205.465.421.602l1.993 1.269-.86 2.188c-.093.237-.087.5.018.732.105.232.3.414.54.504l2.214.83-.381 2.316c-.042.251.02.508.172.713.152.206.38.343.635.382l2.338.356.113 2.343c.013.254.128.492.32.663.192.17.445.257.703.243l2.359-.133.602 2.266c.066.246.229.457.453.584.224.128.49.161.74.094l2.279-.615 1.064 2.09c.116.229.32.401.567.48.246.079.514.057.744-.06l2.1-1.07 1.478 1.824c.162.2.398.327.656.354.258.026.516-.05.716-.212l1.829-1.48 1.829 1.48c.2.162.458.238.716.212.258-.027.494-.154.656-.354l1.478-1.825 2.1 1.072c.23.117.498.14.744.06.247-.079.45-.251.567-.48l1.064-2.09 2.279.615c.25.067.516.034.74-.094.224-.127.387-.337.453-.584l.602-2.266 2.36.133c.257.014.51-.073.702-.243.192-.17.307-.41.32-.663l.113-2.343 2.337-.356c.255-.039.484-.176.636-.382.151-.205.214-.462.172-.713l-.381-2.316 2.214-.83c.24-.091.435-.272.54-.504.105-.232.111-.495.019-.732l-.86-2.19 1.993-1.268c.216-.137.368-.354.421-.602.054-.248.005-.507-.136-.72l-1.3-1.963 1.437-1.41h2.58c.535 0 .969-.427.969-.954-.008-9.981-5.615-19.142-14.575-23.812zM12.83 8.161C9.948 6.643 9.484 3.71 9.457 2.139c5.52 1.253 29.899 6.804 41.69 9.721 1.434.422 2.794 1.06 4.03 1.89 2.46 1.674 3.677 3.778 3.618 6.254-.047 1.966-.177 4.66-.262 6.28-13.182-5.64-28.55-.272-35.173 12.288l-2.727-1.077 7.509-15.357c.008-.016.014-.033.021-.05h.001l.478-1.136c.81-1.925.741-4.1-.186-5.972-.928-1.872-2.626-3.264-4.665-3.82L12.83 8.161zm6.001 28.622l-5.343-2.108c-.901-.356-1.612-1.066-1.96-1.96-.348-.892-.303-1.888.126-2.747l3.829-7.668c.746-1.5 2.48-2.253 4.108-1.784l6.31 1.809-7.07 14.458zm1.596 11.344h-2.606c-.791-.01-1.452-.596-1.545-1.37-.23-1.776-.669-3.797-2.194-5.326-1.016-1.02-3.001-1.783-5.3-2.667-2.494-.96-5.6-2.155-6.195-3.468-.75-1.655-1.003-3.45.05-7.286 1.463-5.327 2.93-8.095 5.61-10.577 1.32-1.208 2.87-2.145 4.56-2.756 1.456-.547 2.374-1.97 2.261-3.499l-.001-.04c-.011-.135-.03-.27-.06-.402l8.267 2.26c1.505.41 2.758 1.437 3.442 2.82.685 1.381.735 2.985.138 4.406l-.146.347-6.576-1.884c-2.53-.73-5.227.442-6.387 2.773l-3.83 7.668c-.666 1.335-.737 2.883-.195 4.272.54 1.389 1.646 2.493 3.048 3.046l6.181 2.44 3.574 1.411c-1.099 2.49-1.805 5.131-2.096 7.832zm46.896 8.604c-.385.245-.542.723-.377 1.144l.793 2.018-2.041.765c-.43.161-.685.597-.612 1.044l.352 2.135-2.155.328c-.455.07-.798.445-.82.897l-.104 2.16-2.175-.123c-.46-.026-.875.271-.992.71l-.555 2.089-2.1-.567c-.445-.12-.915.086-1.122.492l-.98 1.926-1.934-.986c-.41-.21-.914-.104-1.202.252l-1.363 1.681-1.685-1.363c-.357-.289-.872-.289-1.23 0l-1.684 1.363-1.363-1.68c-.288-.356-.791-.462-1.202-.252l-1.934.986-.98-1.926c-.207-.407-.677-.613-1.122-.493l-2.1.567-.555-2.088c-.116-.44-.531-.738-.992-.71l-2.175.122-.104-2.16c-.022-.452-.365-.827-.82-.896l-2.155-.328.352-2.136c.073-.446-.182-.883-.612-1.044l-2.04-.765.792-2.018c.165-.421.008-.899-.377-1.144l-1.839-1.17 1.2-1.811c.25-.378.198-.878-.127-1.197l-.619-.606h3.811c.535 0 .969-.427.969-.954 0-8.859 7.294-16.04 16.291-16.04 8.998 0 16.292 7.181 16.292 16.04 0 .527.434.954.969.954h3.81l-.618.606c-.325.32-.378.819-.127 1.197l1.2 1.811-1.839 1.17zm-1.484-6.69c-.515-9.53-8.512-16.995-18.203-16.995-9.691 0-17.688 7.466-18.203 16.994h-7.206c.51-13.363 11.713-24.082 25.41-24.082 13.696 0 24.897 10.718 25.408 24.082H65.84z" transform="translate(217 559)"/>
                <path d="M47.5 47c-2.485 0-4.5 2.015-4.5 4.5s2.015 4.5 4.5 4.5 4.5-2.015 4.5-4.5c-.003-2.484-2.016-4.497-4.5-4.5zm0 7.04c-1.027 0-1.953-.618-2.346-1.567-.394-.95-.176-2.042.55-2.768.727-.727 1.819-.944 2.768-.55.95.392 1.568 1.319 1.568 2.346-.002 1.401-1.138 2.537-2.54 2.538v.001zM43.804 20.269c.166.527.773.837 1.363.697s.946-.679.8-1.211l-1.771-6.025c-.167-.526-.773-.836-1.362-.696-.59.14-.946.678-.802 1.21l1.772 6.025zM46.922 20.263c.101.35.394.62.767.708.372.087.765-.024 1.026-.289.262-.265.352-.643.234-.989l-1.884-5.998c-.175-.518-.757-.808-1.308-.653-.552.155-.871.698-.72 1.223l1.885 5.998zM50.922 20.263c.101.35.394.62.767.708.372.087.765-.024 1.026-.289.262-.265.352-.643.234-.989l-1.884-5.998c-.175-.518-.757-.808-1.308-.653-.552.155-.871.698-.72 1.223l1.885 5.998z" transform="translate(217 559)"/>
            </g>
        </g>
    </g>
</svg>
