<svg xmlns="http://www.w3.org/2000/svg" width="46.656" height="46.655" viewBox="0 0 46.656 46.655">
  <g id="capital-projects" transform="translate(-0.344)">
    <g id="Group_2" data-name="Group 2" transform="translate(-463 -429)">
      <g id="Group_1" data-name="Group 1">
        <path id="Path_1" data-name="Path 1" d="M30.545-35.5a.689.689,0,0,1-.729-.73v-3.353a.689.689,0,0,1,.73-.729h4.738a.689.689,0,0,1,.729.73v3.353a.689.689,0,0,1-.73.729H30.545Zm4.01-3.28h-3.28v1.9h3.28v-1.9Zm-4.01,13.923a.689.689,0,0,1-.729-.729v-3.353a.69.69,0,0,1,.73-.73h4.738a.689.689,0,0,1,.729.73v3.353a.69.69,0,0,1-.73.73H30.545Zm4.01-3.353h-3.28v1.9h3.28Zm.729,14H30.545a.689.689,0,0,1-.729-.729V-18.3a.689.689,0,0,1,.73-.729h4.738a.689.689,0,0,1,.729.73v3.353a.731.731,0,0,1-.73.729Zm-.73-3.353h-3.28v1.9h3.28ZM23.255-35.5H18.517a.69.69,0,0,1-.73-.73v-3.353a.689.689,0,0,1,.73-.729h4.738a.69.69,0,0,1,.73.73v3.353a.69.69,0,0,1-.73.729Zm-.729-3.28h-3.28v1.9h3.28v-1.9Zm.729,13.923H18.517a.689.689,0,0,1-.73-.729v-3.353a.69.69,0,0,1,.73-.73h4.738a.69.69,0,0,1,.73.73v3.353a.69.69,0,0,1-.73.73Zm-.729-3.353h-3.28v1.9h3.28ZM11.3-35.5H6.56a.689.689,0,0,1-.729-.73v-3.353a.689.689,0,0,1,.729-.729H11.3a.689.689,0,0,1,.728.73v3.353a.73.73,0,0,1-.729.729Zm-.73-3.28H7.29v1.9h3.28v-1.9Z" transform="translate(510 429) rotate(180)" fill="#fff"/>
        <path id="Path_2" data-name="Path 2" d="M45.927-42.428H42.792v3.354c.875.874,3.864,4.228,3.864,8.31,0,4.666-3.937,8.384-4.082,8.53a.706.706,0,0,1-1.021,0,19.591,19.591,0,0,1-1.9-2.26V-.729a.731.731,0,0,1-.73.729H26.9a.731.731,0,0,1-.729-.729V-10.57H14.945a.732.732,0,0,1-.73-.73V-31.857H2.917a.689.689,0,0,1-.729-.73V-42.5H.729A.689.689,0,0,1,0-43.229v-2.7a.689.689,0,0,1,.729-.729h45.2a.689.689,0,0,1,.729.729v2.77a.731.731,0,0,1-.729.73Zm-3.864,18.59c1.02-1.094,3.135-3.864,3.135-7a10.885,10.885,0,0,0-2.406-6.123v2.26L44.1-33.461a.705.705,0,0,1,0,1.02.7.7,0,0,1-1.021,0l-.292-.291v1.53l1.313,1.24a.705.705,0,0,1,0,1.02.7.7,0,0,1-1.021,0l-.292-.29v.8a.689.689,0,0,1-.729.729.689.689,0,0,1-.729-.729v-2.406l-.364.365a.705.705,0,0,1-1.02,0,.7.7,0,0,1,0-1.02l1.384-1.313v-4.082a10.4,10.4,0,0,0-2.4,6.123c0,3.135,2.114,5.832,3.134,6.926Zm-5.176-8.748a.689.689,0,0,1-.729.729H27.63v9.185H38.2v-4.52a9.766,9.766,0,0,1-.728-3.572,9.835,9.835,0,0,1,.729-3.645v-8.019H27.63v9.113h8.528a.784.784,0,0,1,.73.729Zm2.77-4.52a15.613,15.613,0,0,1,1.677-2.041V-42.5H39.658v5.4ZM38.2-10.57H36.3V-4.3L38.2-2.48v-8.091ZM37.106-1.458,35.284-3.281H30.545L28.723-1.458Zm-2.26-3.28V-10.57H30.983v5.832h3.863Zm-7.217,2.26,1.9-1.823v-6.27H27.63v8.093Zm0-9.623H38.2v-9.113H27.63V-12.1Zm-2.479.073-1.9-1.823H18.517l-1.823,1.823h8.457Zm1.021-1.021v-8.165h-1.9v6.342Zm-3.353-2.26v-5.9H18.954v5.905h3.864Zm-7.145,2.26,1.9-1.823v-6.342h-1.9v8.165Zm0-9.623H26.244v-9.185H15.674v9.185Zm0-10.643H26.244V-42.5H15.674v9.186Zm-12.028,0h10.57V-42.5H3.646v9.186ZM45.2-45.2H1.458v1.312H45.2Z" transform="translate(510 429) rotate(180)" fill="#fff"/>
      </g>
    </g>
  </g>
</svg>
