<svg xmlns="http://www.w3.org/2000/svg" width="32" height="31.999" viewBox="0 0 32 31.999">
  <g id="housing" transform="translate(0 -0.001)">
    <g id="Group_4" data-name="Group 4" transform="translate(-713 -1017)">
      <g id="Group_3" data-name="Group 3" transform="translate(713 1017)">
        <circle id="Ellipse_1" data-name="Ellipse 1" cx="1" cy="1" r="1" transform="translate(6.5 26.5)" fill="#212b44"/>
        <circle id="Ellipse_2" data-name="Ellipse 2" cx="1" cy="1" r="1" transform="translate(13.5 26.5)" fill="#212b44"/>
        <path id="Path_3" data-name="Path 3" d="M17,17V12H4v5ZM5.083,13H15.917v3H5.083Z" fill="#212b44"/>
        <path id="Path_4" data-name="Path 4" d="M30.968,11.351V9.286H32V7.94L17.212.29a2.68,2.68,0,0,0-2.423,0L0,7.94V9.286H1.032V32H30.968V20.643H32v-3.1H28.9V15.48h2.065V14.448H19.613v-3.1H30.968Zm-1.033-1.032H19.613V9.286H29.935ZM15.262,1.207a1.631,1.631,0,0,1,1.475,0L30.36,8.254H1.64L15.262,1.207Zm3.319,8.08v8.259H16.516v1.032H2.065V9.286H18.58Zm1.032,11.356V30.968H18.58V20.643h1.032ZM2.065,19.611H3.1V30.968H2.065V19.61Zm5.677,6.194h6.193a1.551,1.551,0,0,1,1.549,1.549v.516A1.033,1.033,0,0,1,14.452,28.9H7.226A1.033,1.033,0,0,1,6.194,27.87v-.516A1.55,1.55,0,0,1,7.742,25.8Zm-.346-1,.21-2.2a1.028,1.028,0,0,1,1.027-.934h4.41a1.027,1.027,0,0,1,1.028.934l.21,2.2a2.616,2.616,0,0,0-.346-.035H7.742A2.651,2.651,0,0,0,7.4,24.808Zm.346,6.16V29.935H8.774v1.033H7.742Zm2.064,0V29.935h2.065v1.033H9.806Zm3.1,0V29.935h1.032v1.033H12.9Zm2.065-1.106a2.063,2.063,0,0,0,1.548-1.992v-.516a2.577,2.577,0,0,0-1.16-2.151l-.257-2.69a2.056,2.056,0,0,0-2.055-1.87H8.634a2.058,2.058,0,0,0-2.056,1.869L6.322,25.2a2.58,2.58,0,0,0-1.16,2.152v.516A2.062,2.062,0,0,0,6.71,29.862v1.106H4.129V19.61H16.516v1.032h1.032V30.967h-2.58V29.861Zm11.87,1.106h-3.1V23.74h3.1v7.227Zm3.1,0H27.871v-8.26H22.71v8.26H20.645V20.643h9.29V30.968Zm1.033-11.357H17.548V18.578h13.42v1.033ZM22.71,17.546V15.48h2.064v2.065H22.71Zm5.161,0H25.806V15.48h2.065v2.065Zm-6.194-2.065v2.065H19.613V15.48h2.064Z" fill="#212b44"/>
      </g>
    </g>
  </g>
</svg>
