<svg xmlns="http://www.w3.org/2000/svg" width="44.185" height="45.251" viewBox="0 0 44.185 45.251">
  <g id="new-construction" transform="translate(-0.407 -0.374)">
    <g id="Group_8" data-name="Group 8" transform="translate(-102 -436)">
      <g id="Group_7" data-name="Group 7">
        <path id="Path_8" data-name="Path 8" d="M13.658,9.374H32.629v1.5H13.658Zm0-4.5H32.629v1.5H13.658ZM33.527,17.683a4.96,4.96,0,1,0,4.96,4.959,4.965,4.965,0,0,0-4.96-4.959Zm0,8.419a3.46,3.46,0,1,1,3.46-3.46A3.464,3.464,0,0,1,33.527,26.1Z" transform="translate(102 436)" fill="#fff"/>
        <path id="Path_9" data-name="Path 9" d="M37.157,41.338c.878-1.508,1.821-3.273,2.728-5.11,1.416-2.867,4.707-9.928,4.707-13.586a11.081,11.081,0,0,0-7.434-10.45V.374H8.658V19.6a4.064,4.064,0,0,0-1.572-.328,4.436,4.436,0,0,0-4.307,4.545A4.783,4.783,0,0,0,3.1,25.54,6.15,6.15,0,0,0,.407,30.587a6.3,6.3,0,0,0,5.75,6.167v4.621h-5v1.5h29.87c1.627,2.53,2.153,2.75,2.617,2.75s.992-.22,2.584-2.75h6.666v-1.5H37.158v-.037Zm-27-39.463h25.5v9.91a11.016,11.016,0,0,0-8.87,2.089H13.647v1.5H25.193a11.074,11.074,0,0,0-1.875,3h-9.67v1.5h9.163a11.045,11.045,0,0,0-.35,2.768c0,.073.009.157.012.233H13.648v1.5h9.005a23.349,23.349,0,0,0,.815,3h-9.81v1.5H24c.384,1.019.806,2.036,1.229,3H13.657v9.5h-3.5V1.875Zm5,39.5v-8h7v8h-7Zm8.5,0v-8H25.9c.528,1.139,1.018,2.134,1.386,2.859.934,1.847,1.908,3.624,2.812,5.141ZM1.907,30.587a4.686,4.686,0,0,1,2.516-4.1l.684-.367-.393-.672a3.225,3.225,0,0,1-.436-1.629,2.937,2.937,0,0,1,2.808-3.044,2.637,2.637,0,0,1,1.571.527V34.951a5.084,5.084,0,0,1-1.809.34,4.833,4.833,0,0,1-4.94-4.7Zm5.751,6.149a6.584,6.584,0,0,0,1-.2v4.842h-1Zm25.984,7.231c-2.012-2.1-9.682-16.223-9.682-21.324a9.567,9.567,0,0,1,19.133,0c0,5.112-7.484,19.22-9.451,21.324Z" transform="translate(102 436)" fill="#fff"/>
      </g>
    </g>
  </g>
</svg>
